dsdl/lab9/q2_tb.vcd
$date
	Thu Nov  3 08:44:45 2022
$end
$version
	Icarus Verilog
$end
$timescale
	1ns
$end
$scope module q2_tb $end
$var wire 1 ! h $end
$var wire 1 " g $end
$var wire 1 # f $end
$var reg 1 $ En $end
$var reg 4 % i [3:0] $end
$var integer 32 & j [31:0] $end
$scope module f1 $end
$var wire 1 $ En $end
$var wire 1 # f $end
$var wire 1 " g $end
$var wire 1 ! h $end
$var wire 4 ' i [3:0] $end
$var wire 16 ( c [15:0] $end
$scope module s0 $end
$var wire 1 $ En $end
$var wire 4 ) i [3:0] $end
$var wire 16 * f [15:0] $end
$var wire 4 + c [3:0] $end
$scope module stage0 $end
$var wire 1 $ En $end
$var wire 2 , i [1:0] $end
$var reg 4 - f [3:0] $end
$upscope $end
$scope module stage1 $end
$var wire 1 . En $end
$var wire 2 / i [1:0] $end
$var reg 4 0 f [3:0] $end
$upscope $end
$scope module stage2 $end
$var wire 1 1 En $end
$var wire 2 2 i [1:0] $end
$var reg 4 3 f [3:0] $end
$upscope $end
$scope module stage3 $end
$var wire 1 4 En $end
$var wire 2 5 i [1:0] $end
$var reg 4 6 f [3:0] $end
$upscope $end
$scope module stage4 $end
$var wire 1 7 En $end
$var wire 2 8 i [1:0] $end
$var reg 4 9 f [3:0] $end
$upscope $end
$upscope $end
$upscope $end
$upscope $end
$enddefinitions $end
#0
$dumpvars
b0 9
b0 8
07
b0 6
b0 5
04
b0 3
b0 2
01
b1 0
b0 /
1.
b1 -
b0 ,
b1 +
b1 *
b0 )
b1 (
b0 '
b0 &
b0 %
1$
0#
0"
1!
$end
#20
b10 (
b10 *
b10 0
b1 /
b1 2
b1 5
b1 8
b1 %
b1 '
b1 )
b1 &
#40
0!
1"
b100 (
b100 *
b100 0
b10 /
b10 2
b10 5
b10 8
b10 %
b10 '
b10 )
b10 &
#60
1#
1!
b1000 (
b1000 *
b1000 0
b11 /
b11 2
b11 5
b11 8
b11 %
b11 '
b11 )
b11 &
#80
0#
b1 3
0!
0"
11
0.
b10 +
b10 -
b10000 (
b10000 *
b0 0
b1 ,
b0 /
b0 2
b0 5
b0 8
b100 %
b100 '
b100 )
b100 &
#100
b100000 (
b100000 *
b10 3
b1 /
b1 2
b1 5
b1 8
b101 %
b101 '
b101 )
b101 &
#120
1#
b1000000 (
b1000000 *
b100 3
b10 /
b10 2
b10 5
b10 8
b110 %
b110 '
b110 )
b110 &
#140
1!
1#
b10000000 (
b10000000 *
b1000 3
b11 /
b11 2
b11 5
b11 8
b111 %
b111 '
b111 )
b111 &
#160
0#
0!
b1 6
14
01
b100 +
b100 -
b100000000 (
b100000000 *
b0 3
b10 ,
b0 /
b0 2
b0 5
b0 8
b1000 %
b1000 '
b1000 )
b1000 &
#180
b1000000000 (
b1000000000 *
b10 6
b1 /
b1 2
b1 5
b1 8
b1001 %
b1001 '
b1001 )
b1001 &
#200
1#
1"
b10000000000 (
b10000000000 *
b100 6
b10 /
b10 2
b10 5
b10 8
b1010 %
b1010 '
b1010 )
b1010 &
#220
0"
b100000000000 (
b100000000000 *
b1000 6
b11 /
b11 2
b11 5
b11 8
b1011 %
b1011 '
b1011 )
b1011 &
#240
0#
b1 9
17
04
b1000 +
b1000 -
b1000000000000 (
b1000000000000 *
b0 6
b11 ,
b0 /
b0 2
b0 5
b0 8
b1100 %
b1100 '
b1100 )
b1100 &
#260
b10000000000000 (
b10000000000000 *
b10 9
b1 /
b1 2
b1 5
b1 8
b1101 %
b1101 '
b1101 )
b1101 &
#280
1!
1"
1#
b100000000000000 (
b100000000000000 *
b100 9
b10 /
b10 2
b10 5
b10 8
b1110 %
b1110 '
b1110 )
b1110 &
#300
0"
0#
b1000000000000000 (
b1000000000000000 *
b1000 9
b11 /
b11 2
b11 5
b11 8
b1111 %
b1111 '
b1111 )
b1111 &
#320
b10000 &
